/home/tareq/Code/AIProject3/src/main/java/com/ont/aiproject3/entity/IndexEntryType.java
/home/tareq/Code/AIProject3/src/main/java/com/ont/aiproject3/entity/IndexEntry.java
/home/tareq/Code/AIProject3/src/main/java/com/ont/aiproject3/entity/DataFile.java
/home/tareq/Code/AIProject3/src/main/java/com/ont/aiproject3/dao/FileDao.java
/home/tareq/Code/AIProject3/src/main/java/com/ont/aiproject3/entity/WordInvertedIndex.java
/home/tareq/Code/AIProject3/src/main/java/com/ont/aiproject3/run/Initialization.java
/home/tareq/Code/AIProject3/src/main/java/com/ont/aiproject3/endpoint/SearchEndpoint.java
/home/tareq/Code/AIProject3/src/main/java/com/ont/aiproject3/search/KhojaStemmer.java
/home/tareq/Code/AIProject3/src/main/java/com/ont/aiproject3/entity/SearchQuery.java
/home/tareq/Code/AIProject3/src/main/java/com/ont/aiproject3/endpoint/FileEndpoint.java
/home/tareq/Code/AIProject3/src/main/java/com/ont/aiproject3/utils/EntityManagerFactoryWrapper.java
/home/tareq/Code/AIProject3/src/main/java/com/ont/aiproject3/utils/GlobalConstants.java
/home/tareq/Code/AIProject3/src/main/java/com/ont/aiproject3/dao/SearchDao.java
/home/tareq/Code/AIProject3/src/main/java/com/ont/aiproject3/search/Stemmer.java
